
#===========================================================================
# Général
#===========================================================================

Code
----------------------------------------------------------------------------

XNA For the Win !!!
j'ai testé un peu cette semaine ça marche plutôt pas mal c't'affaire


Graphisme
----------------------------------------------------------------------------

- On se contente de faire de la 2D non ? j'pense que ça serait plus simple vu le temps
- Pixel Art / Bitmap / Vecto ?
	Je suis plus à l'aise en pixel art mais ça m'dérange pas d'essayer autre chose non plus


Son
----------------------------------------------------------------------------

- j'ai essayer d'me demerder avec SFXR, Audacity et FruityLoop pour obtenir quelque chose d'un peu plus décent que d'habitude ^^




#===========================================================================
# THEMES
#===========================================================================
Afterlife
Death is good
Creation and destruction
No weapons allowed
Minimalism
No enemies


#===========================================================================
# Afterlife
#===========================================================================
- Paradi / Enfer ? (l'enfer est sans doute plus interressant ^^)
- Enfer à la greco romaine
- le joueur est un Fantôme qui hante les vivants
- reincarnation



#===========================================================================
# Death is good
#===========================================================================
- Plateformeur où il faut utiliser les cadavres des parties d'avant pour avancer (j'ai vu ça hier sur http://concerned-joe.com/ en developpement ^^)
- Il faut vampiriser ses enemies d'une manière ou d'une autre


#===========================================================================
# Creation and destruction
#===========================================================================
- God game ? ça risque d'être trop long, à voir



#===========================================================================
# No weapons allowed
#===========================================================================
- Puzzle game, ze brain iz ur weapon !!! ( ça veut dire trouver un bon concept de base et pondre des bon level design autour)


#===========================================================================
# Minimalism
#===========================================================================
- Formes géométriques
- le premier jeu vidéo en 1D ^^
- tout en ascii, ça veut dire pas de graphisme... bof...



#===========================================================================
# No enemies
#===========================================================================
- s'il n'y a pas d'enemie, quels sont les obstables ? 
- ou alors le joueur peut être sont propre enemie